[
    {
        "key": "group_58349468b9f0b",
        "title": "Review Plugin",
        "fields": [
            {
                "layout": "horizontal",
                "choices": {
                    "1": "1",
                    "2": "2",
                    "3": "3",
                    "4": "4",
                    "5": "5"
                },
                "default_value": 5,
                "other_choice": 0,
                "save_other_choice": 0,
                "allow_null": 0,
                "return_format": "value",
                "key": "field_5834947937736",
                "label": "Rating",
                "name": "rating",
                "type": "radio",
                "instructions": "",
                "required": 0,
                "conditional_logic": 0,
                "wrapper": {
                    "width": "",
                    "class": "",
                    "id": ""
                }
            },
            {
                "default_value": "",
                "maxlength": "",
                "placeholder": "",
                "prepend": "",
                "append": "",
                "key": "field_583494b937737",
                "label": "Reviewer Name",
                "name": "review_from",
                "type": "text",
                "instructions": "",
                "required": 0,
                "conditional_logic": 0,
                "wrapper": {
                    "width": "",
                    "class": "",
                    "id": ""
                }
            },
            {
                "default_value": "#",
                "maxlength": "",
                "placeholder": "http:\/\/socialnewsiteexample.com\/reviewer1",
                "prepend": "",
                "append": "",
                "key": "field_583494dc37738",
                "label": "Source Url",
                "name": "source_url",
                "type": "text",
                "instructions": "URL for the source of the review",
                "required": 0,
                "conditional_logic": 0,
                "wrapper": {
                    "width": "",
                    "class": "",
                    "id": ""
                }
            },
            {
                "multiple": 0,
                "allow_null": 0,
                "choices": {
                    "other": "Other",
                    "noprocedure": "No Procedure Listed",
                    "test": "testing"
                },
                "default_value": [],
                "ui": 0,
                "ajax": 0,
                "placeholder": "",
                "return_format": "value",
                "key": "field_5834954737739",
                "label": "Source \/ Category",
                "name": "source",
                "type": "select",
                "instructions": "Select which website the review came from",
                "required": 1,
                "conditional_logic": 0,
                "wrapper": {
                    "width": "",
                    "class": "",
                    "id": ""
                }
            },
            {
                "multiple": 0,
                "allow_null": 0,
                "choices": {
                    "noprocedure": "No Procedure Listed",
                    "other": "Other"
                },
                "default_value": [],
                "ui": 0,
                "ajax": 0,
                "placeholder": "",
                "return_format": "value",
                "key": "field_5834bdea3773a",
                "label": "Procedure",
                "name": "procedure",
                "type": "select",
                "instructions": "Categorize the post with a procedure",
                "required": 1,
                "conditional_logic": 0,
                "wrapper": {
                    "width": "",
                    "class": "",
                    "id": ""
                }
            }
        ],
        "location": [
            [
                {
                    "param": "post_type",
                    "operator": "==",
                    "value": "review"
                }
            ]
        ],
        "menu_order": 0,
        "position": "normal",
        "style": "default",
        "label_placement": "top",
        "instruction_placement": "label",
        "hide_on_screen": "",
        "active": 1,
        "description": ""
    },
    {
        "key": "group_586d437af2021",
        "title": "Reviews Plugin Options",
        "fields": [
            {
                "placement": "top",
                "endpoint": 0,
                "key": "field_586d5312687f6",
                "label": "Settings",
                "name": "",
                "type": "tab",
                "instructions": "",
                "required": 0,
                "conditional_logic": 0,
                "wrapper": {
                    "width": "",
                    "class": "",
                    "id": ""
                }
            },
            {
                "default_value": "#222",
                "key": "field_586d53cc687f8",
                "label": "Font Color",
                "name": "font_color",
                "type": "color_picker",
                "instructions": "",
                "required": 0,
                "conditional_logic": 0,
                "wrapper": {
                    "width": "",
                    "class": "",
                    "id": ""
                }
            },
            {
                "default_value": "",
                "maxlength": "",
                "placeholder": "",
                "prepend": "",
                "append": "",
                "key": "field_586d533a687f7",
                "label": "Top Margin",
                "name": "top_margin",
                "type": "text",
                "instructions": "",
                "required": 0,
                "conditional_logic": 0,
                "wrapper": {
                    "width": "",
                    "class": "",
                    "id": ""
                }
            },
            {
                "default_value": "",
                "maxlength": "",
                "placeholder": "",
                "prepend": "",
                "append": "",
                "key": "field_586d53f1687f9",
                "label": "Font Size",
                "name": "font_size",
                "type": "text",
                "instructions": "",
                "required": 0,
                "conditional_logic": 0,
                "wrapper": {
                    "width": "",
                    "class": "",
                    "id": ""
                }
            },
            {
                "return_format": "array",
                "preview_size": "thumbnail",
                "library": "all",
                "min_width": "",
                "min_height": "",
                "min_size": "",
                "max_width": "",
                "max_height": "",
                "max_size": "",
                "mime_types": "",
                "key": "field_586d88ba041a8",
                "label": "Default Site Logo",
                "name": "site_logo",
                "type": "image",
                "instructions": "Default Fallback for site's square logo. ( uncategorized source )",
                "required": 0,
                "conditional_logic": 0,
                "wrapper": {
                    "width": "",
                    "class": "",
                    "id": ""
                }
            },
            {
                "placement": "top",
                "endpoint": 0,
                "key": "field_586fdaaffbba8",
                "label": "Sources and Procedures",
                "name": "",
                "type": "tab",
                "instructions": "",
                "required": 0,
                "conditional_logic": 0,
                "wrapper": {
                    "width": "",
                    "class": "",
                    "id": ""
                }
            },
            {
                "sub_fields": [
                    {
                        "default_value": "",
                        "maxlength": "",
                        "placeholder": "",
                        "prepend": "",
                        "append": "",
                        "key": "field_586fd6b04a571",
                        "label": "Value",
                        "name": "value",
                        "type": "text",
                        "instructions": "",
                        "required": 0,
                        "conditional_logic": 0,
                        "wrapper": {
                            "width": "",
                            "class": "",
                            "id": ""
                        }
                    },
                    {
                        "default_value": "",
                        "maxlength": "",
                        "placeholder": "",
                        "prepend": "",
                        "append": "",
                        "key": "field_586fd6b64a572",
                        "label": "Label",
                        "name": "label",
                        "type": "text",
                        "instructions": "",
                        "required": 0,
                        "conditional_logic": 0,
                        "wrapper": {
                            "width": "",
                            "class": "",
                            "id": ""
                        }
                    }
                ],
                "min": 0,
                "max": 0,
                "layout": "table",
                "button_label": "",
                "collapsed": "",
                "key": "field_586fd56ed44a0",
                "label": "Sources",
                "name": "sources",
                "type": "repeater",
                "instructions": "",
                "required": 0,
                "conditional_logic": 0,
                "wrapper": {
                    "width": "",
                    "class": "",
                    "id": ""
                }
            },
            {
                "sub_fields": [
                    {
                        "default_value": "",
                        "maxlength": "",
                        "placeholder": "",
                        "prepend": "",
                        "append": "",
                        "key": "field_586fd6cc4a573",
                        "label": "Value",
                        "name": "value",
                        "type": "text",
                        "instructions": "",
                        "required": 0,
                        "conditional_logic": 0,
                        "wrapper": {
                            "width": "",
                            "class": "",
                            "id": ""
                        }
                    },
                    {
                        "default_value": "",
                        "maxlength": "",
                        "placeholder": "",
                        "prepend": "",
                        "append": "",
                        "key": "field_586fd6d14a574",
                        "label": "Label",
                        "name": "label",
                        "type": "text",
                        "instructions": "",
                        "required": 0,
                        "conditional_logic": 0,
                        "wrapper": {
                            "width": "",
                            "class": "",
                            "id": ""
                        }
                    }
                ],
                "min": 0,
                "max": 0,
                "layout": "table",
                "button_label": "",
                "collapsed": "",
                "key": "field_586fd576d44a1",
                "label": "Procedures",
                "name": "procedures",
                "type": "repeater",
                "instructions": "Each entries should be one line each.",
                "required": 0,
                "conditional_logic": 0,
                "wrapper": {
                    "width": "",
                    "class": "",
                    "id": ""
                }
            },
            {
                "placement": "top",
                "endpoint": 0,
                "key": "field_586d47c3e8e35",
                "label": "Button",
                "name": "",
                "type": "tab",
                "instructions": "",
                "required": 0,
                "conditional_logic": 0,
                "wrapper": {
                    "width": "",
                    "class": "",
                    "id": ""
                }
            },
            {
                "default_value": "#222",
                "key": "field_586d438949b1e",
                "label": "Button Font Color",
                "name": "button_font_color",
                "type": "color_picker",
                "instructions": "",
                "required": 0,
                "conditional_logic": 0,
                "wrapper": {
                    "width": "",
                    "class": "",
                    "id": ""
                }
            },
            {
                "default_value": "#eeeeee",
                "key": "field_586d43ac49b1f",
                "label": "Button Background Color",
                "name": "button_background_color",
                "type": "color_picker",
                "instructions": "",
                "required": 0,
                "conditional_logic": 0,
                "wrapper": {
                    "width": "",
                    "class": "",
                    "id": ""
                }
            },
            {
                "default_value": "#222",
                "key": "field_586d43e349b20",
                "label": "Button Hover Font Color",
                "name": "button_hover_font_color",
                "type": "color_picker",
                "instructions": "",
                "required": 0,
                "conditional_logic": 0,
                "wrapper": {
                    "width": "",
                    "class": "",
                    "id": ""
                }
            },
            {
                "default_value": "#99b8e1",
                "key": "field_586d444e49b21",
                "label": "Button Hover Background Color",
                "name": "button_hover_background_color",
                "type": "color_picker",
                "instructions": "",
                "required": 0,
                "conditional_logic": 0,
                "wrapper": {
                    "width": "",
                    "class": "",
                    "id": ""
                }
            },
            {
                "default_value": "#ffffff",
                "key": "field_586d44ab49b22",
                "label": "Button Active Font Color",
                "name": "button_active_font_color",
                "type": "color_picker",
                "instructions": "",
                "required": 0,
                "conditional_logic": 0,
                "wrapper": {
                    "width": "",
                    "class": "",
                    "id": ""
                }
            },
            {
                "default_value": "#43556c",
                "key": "field_586d44df49b23",
                "label": "Button Active Background Color",
                "name": "button_active_background_color",
                "type": "color_picker",
                "instructions": "",
                "required": 0,
                "conditional_logic": 0,
                "wrapper": {
                    "width": "",
                    "class": "",
                    "id": ""
                }
            },
            {
                "placement": "top",
                "endpoint": 0,
                "key": "field_586d4821855e6",
                "label": "Button Mobile",
                "name": "",
                "type": "tab",
                "instructions": "",
                "required": 0,
                "conditional_logic": 0,
                "wrapper": {
                    "width": "",
                    "class": "",
                    "id": ""
                }
            },
            {
                "default_value": "#ffffff",
                "key": "field_586d464549b24",
                "label": "Button Mobile Font Color",
                "name": "button_mobile_font_color",
                "type": "color_picker",
                "instructions": "",
                "required": 0,
                "conditional_logic": 0,
                "wrapper": {
                    "width": "",
                    "class": "",
                    "id": ""
                }
            },
            {
                "default_value": "#8da8af",
                "key": "field_586d474349b25",
                "label": "Button Mobile Background Color",
                "name": "button_mobile_background_color",
                "type": "color_picker",
                "instructions": "",
                "required": 0,
                "conditional_logic": 0,
                "wrapper": {
                    "width": "",
                    "class": "",
                    "id": ""
                }
            },
            {
                "default_value": "#ffffff",
                "key": "field_586d475b49b26",
                "label": "Button Mobile Hover Font Color",
                "name": "button_mobile_hover_font_color",
                "type": "color_picker",
                "instructions": "",
                "required": 0,
                "conditional_logic": 0,
                "wrapper": {
                    "width": "",
                    "class": "",
                    "id": ""
                }
            },
            {
                "default_value": "#a7c7cf",
                "key": "field_586d477849b27",
                "label": "Button Mobile Hover Background Color",
                "name": "button_mobile_hover_background_color",
                "type": "color_picker",
                "instructions": "",
                "required": 0,
                "conditional_logic": 0,
                "wrapper": {
                    "width": "",
                    "class": "",
                    "id": ""
                }
            },
            {
                "placement": "top",
                "endpoint": 0,
                "key": "field_586fdaf83e9c6",
                "label": "Custom CSS rewrites",
                "name": "",
                "type": "tab",
                "instructions": "",
                "required": 0,
                "conditional_logic": 0,
                "wrapper": {
                    "width": "",
                    "class": "",
                    "id": ""
                }
            },
            {
                "default_value": "",
                "new_lines": "",
                "maxlength": "",
                "placeholder": "",
                "rows": 10,
                "key": "field_586fdac5fbba9",
                "label": "Custom CSS rewrites",
                "name": "custom_css_rewrites",
                "type": "textarea",
                "instructions": "",
                "required": 0,
                "conditional_logic": 0,
                "wrapper": {
                    "width": "",
                    "class": "",
                    "id": ""
                }
            }
        ],
        "location": [
            [
                {
                    "param": "options_page",
                    "operator": "==",
                    "value": "theme-reviews-settings"
                }
            ]
        ],
        "menu_order": 0,
        "position": "normal",
        "style": "default",
        "label_placement": "top",
        "instruction_placement": "label",
        "hide_on_screen": "",
        "active": 1,
        "description": ""
    }
]